<svg width="24" height="24" xmlns="http://www.w3.org/2000/svg">
 <g>
  <title>Layer 1</title>
  <g transform="translate(0.20000000298023224,-0.20000000298023224) matrix(1,0,0,1,0,0) matrix(1,0,0,1,0,0) rotate(0.5298384428024292 12.20024967193592,11.99999999999983) " id="svg_1">
   <path id="svg_2" fill="#ff0000" d="m8.6062,12.699951c-2.885601,1.300049 -4.9781,4 -5.3437,7.300049c0,1.099976 0.8329,2 1.9375,2h14.000001c1.105,0 1.938,-0.900024 1.938,-2c-0.365999,-3.300049 -2.459,-6 -5.344001,-7.300049c-0.649,1.300049 -2.011,2.300049 -3.594,2.300049s-2.9453,-1 -3.5938,-2.300049z"/>
   <path id="svg_3" fill="#ff0000" d="m17.200001,7a5,5 0 1 1 -10.000001,0a5,5 0 1 1 10.000001,0z"/>
   <path id="svg_4" fill="#ff0000" d="m12.2,11c-1.277,0 -2.4943,0.268982 -3.5938,0.75c-2.885601,1.262024 -4.9781,3.997009 -5.3437,7.25c0,1.10498 0.8329,2 1.9375,2h14.000001c1.105,0 1.938,-0.89502 1.938,-2c-0.365999,-3.252991 -2.459,-5.987976 -5.344001,-7.25c-1.099999,-0.481018 -2.316999,-0.75 -3.594,-0.75z"/>
  </g>
  <g id="selectorGroup2">
   <path stroke-dasharray="5,5" stroke="#22C" fill="none" id="selectedBox2"/>
  </g>
 </g>
</svg>