{
	"name": "UsersManagement",
	"slug": "users-management",
	"version": "1.0",
	"description": "This is the description for the UsersManagement module.",
	"enabled": true,
	"order" : 11,
	"namespace": "UsersManagement"
}
